…
    ## [1] 0.3748754

## CV iteratively

use `modelr::crossv_mc`

``` r
cv_df = 
   crossv_mc(nonlin_df, 100) ## train 100 times

## let's check!
cv_df %>%  pull(train) %>% .[[1]] %>%  as_tibble() ## `[[1]]` means give me the first element in the list.
```

    ## # A tibble: 79 × 3
    ##       id      x       y
    ##    <int>  <dbl>   <dbl>
    ##  1     1 0.136   0.589 
    ##  2     2 0.199   0.522 
    ##  3     3 0.550   0.185 
    ##  4     4 0.604   0.0194
    ##  5     5 0.0785  0.554 
    ##  6     6 0.444   0.622 
    ##  7     7 0.986  -3.73  
    ##  8     8 0.738  -1.30  
    ##  9     9 0.895  -2.51  
    ## 10    10 0.270   1.25  
    ## # … with 69 more rows
…
Let’s fit some models

``` r
cv_df %>% 
  mutate(
    linear_mod = map(.x = train, ~lm(y ~ x, data = .x))
  ) %>% 
  mutate(
    rsme_linear = map2_dbl(.x = linear_mod, .y = test, ~rmse(model = .x, data = .y)) ## `dbl` could give us number version.
  )
```

    ## # A tibble: 100 × 5
    ##    train             test              .id   linear_mod rsme_linear
    ##    <list>            <list>            <chr> <list>           <dbl>
    ##  1 <tibble [79 × 3]> <tibble [21 × 3]> 001   <lm>             0.710
    ##  2 <tibble [79 × 3]> <tibble [21 × 3]> 002   <lm>             0.766
    ##  3 <tibble [79 × 3]> <tibble [21 × 3]> 003   <lm>             0.840
    ##  4 <tibble [79 × 3]> <tibble [21 × 3]> 004   <lm>             0.930
    ##  5 <tibble [79 × 3]> <tibble [21 × 3]> 005   <lm>             0.702
    ##  6 <tibble [79 × 3]> <tibble [21 × 3]> 006   <lm>             0.874
    ##  7 <tibble [79 × 3]> <tibble [21 × 3]> 007   <lm>             0.873
    ##  8 <tibble [79 × 3]> <tibble [21 × 3]> 008   <lm>             0.834
    ##  9 <tibble [79 × 3]> <tibble [21 × 3]> 009   <lm>             0.595
    ## 10 <tibble [79 × 3]> <tibble [21 × 3]> 010   <lm>             0.726
    ## # … with 90 more rows
…
